^E:\KULIAH TELASO\WASTELANDER-GAME\SERVER\SERVER\DEBUG\MAINSERVER.OBJ
/OUT:"E:\KULIAH TELASO\WASTELANDER-GAME\SERVER\DEBUG\SERVER.EXE" /INCREMENTAL /NOLOGO KERNEL32.LIB USER32.LIB GDI32.LIB WINSPOOL.LIB COMDLG32.LIB ADVAPI32.LIB SHELL32.LIB OLE32.LIB OLEAUT32.LIB UUID.LIB ODBC32.LIB ODBCCP32.LIB /MANIFEST /MANIFESTUAC:"level='asInvoker' uiAccess='false'" /manifest:embed /DEBUG:FASTLINK /PDB:"E:\KULIAH TELASO\WASTELANDER-GAME\SERVER\DEBUG\SERVER.PDB" /SUBSYSTEM:CONSOLE /TLBID:1 /DYNAMICBASE /NXCOMPAT /IMPLIB:"E:\KULIAH TELASO\WASTELANDER-GAME\SERVER\DEBUG\SERVER.LIB" /MACHINE:X86 DEBUG\MAINSERVER.OBJ
^E:\KULIAH TELASO\WASTELANDER-GAME\SERVER\SERVERTCP\SERVER\DEBUG\MAINSERVER.OBJ
/OUT:"E:\KULIAH TELASO\WASTELANDER-GAME\SERVER\SERVERTCP\DEBUG\SERVER.EXE" /INCREMENTAL /NOLOGO KERNEL32.LIB USER32.LIB GDI32.LIB WINSPOOL.LIB COMDLG32.LIB ADVAPI32.LIB SHELL32.LIB OLE32.LIB OLEAUT32.LIB UUID.LIB ODBC32.LIB ODBCCP32.LIB /MANIFEST /MANIFESTUAC:"level='asInvoker' uiAccess='false'" /manifest:embed /DEBUG:FASTLINK /PDB:"E:\KULIAH TELASO\WASTELANDER-GAME\SERVER\SERVERTCP\DEBUG\SERVER.PDB" /SUBSYSTEM:CONSOLE /TLBID:1 /DYNAMICBASE /NXCOMPAT /IMPLIB:"E:\KULIAH TELASO\WASTELANDER-GAME\SERVER\SERVERTCP\DEBUG\SERVER.LIB" /MACHINE:X86 DEBUG\MAINSERVER.OBJ
